1,2
{'phylum': 'Actinobacteria'},21
{'phylum': 'Bacteroidetes'},522
{'phylum': 'Chlorobi'},2
{'phylum': 'Chordata'},0
{'phylum': 'Cyanobacteria'},0
{'phylum': 'Deferribacteres'},0
{'phylum': 'Firmicutes'},36
{'phylum': 'Proteobacteria'},9
{'phylum': 'Verrucomicrobia'},23
{},3
