1,2
{'phylum': 'Actinobacteria'},11.469999999999999
{'phylum': 'Arthropoda'},0.0
{'phylum': 'Bacteroidetes'},112.55000000000003
{'phylum': 'Chlorobi'},15.25
{'phylum': 'Cyanobacteria'},0.0
{'phylum': 'Deferribacteres'},15.27
{'phylum': 'Firmicutes'},200.12999999999997
{'phylum': 'Fusobacteria'},3.8899999999999997
{'phylum': 'Proteobacteria'},20.91
{'phylum': 'Spirochaetes'},2.82
{'phylum': 'Tenericutes'},0.0
{},2.87
